{
    "count": 42956,
    "next": "http://launcher.frontline-mod.com:8000/servers/?battleye=&gm=&o=-players&page=2&password=",
    "previous": null,
    "results": [
        {
            "ip": "46.188.49.216",
            "port": 2113,
            "name": "TUSHINO Serious Games #2",
            "players": 143,
            "players_max": 192,
            "password": true,
            "battleye": true,
            "gm": false
        },
        {
            "ip": "164.132.202.63",
            "port": 2303,
            "name": "[UK/EU] Grandtheftarma.com #3 - Malden Conflict Zones",
            "players": 84,
            "players_max": 110,
            "password": false,
            "battleye": true,
            "gm": false
        },
        {
            "ip": "45.121.211.65",
            "port": 2303,
            "name": "The Darkside Life | Combat Roleplay | Fresh Database",
            "players": 76,
            "players_max": 160,
            "password": false,
            "battleye": true,
            "gm": false
        },
        {
            "ip": "172.93.103.90",
            "port": 2303,
            "name": "CodeFourGaming - King Of The Hill Infantry US #4 - 24/7 Day",
            "players": 65,
            "players_max": 100,
            "password": false,
            "battleye": true,
            "gm": false
        },
        {
            "ip": "116.90.1.142",
            "port": 2303,
            "name": "outputgaming.org - King Of The Hill - AU #1 - armakoth.com",
            "players": 65,
            "players_max": 100,
            "password": false,
            "battleye": true,
            "gm": false
        },
        {
            "ip": "109.173.41.216",
            "port": 2323,
            "name": "\b *[RU] - King Of The Hill - WS.ARMA.SU - #1 - Infantry",
            "players": 57,
            "players_max": 100,
            "password": false,
            "battleye": true,
            "gm": false
        },
        {
            "ip": "46.4.99.52",
            "port": 2303,
            "name": "[FR] Arma RolePlay France|MOD| Le serveur dont vous êtes le h\\xc3",
            "players": 54,
            "players_max": 82,
            "password": false,
            "battleye": true,
            "gm": false
        },
        {
            "ip": "74.91.124.177",
            "port": 2303,
            "name": "15th MEU (SOC) [Official] - Task Force Alpha",
            "players": 51,
            "players_max": 100,
            "password": true,
            "battleye": false,
            "gm": false
        },
        {
            "ip": "164.68.110.159",
            "port": 2303,
            "name": "77th JSOC - EU 1 | Invade & Annex - Altis | APEX v1.13",
            "players": 49,
            "players_max": 60,
            "password": false,
            "battleye": true,
            "gm": false
        },
        {
            "ip": "198.27.74.79",
            "port": 2303,
            "name": "{TCG} 75th Rangers Milsim",
            "players": 46,
            "players_max": 128,
            "password": true,
            "battleye": false,
            "gm": false
        },
        {
            "ip": "202.186.138.242",
            "port": 2303,
            "name": "15th Malaya Regiment - Arma Malaysia",
            "players": 46,
            "players_max": 99,
            "password": true,
            "battleye": false,
            "gm": false
        },
        {
            "ip": "74.91.122.117",
            "port": 2337,
            "name": "15th MEU (SOC) [Official] - Task Force Charlie",
            "players": 45,
            "players_max": 100,
            "password": true,
            "battleye": false,
            "gm": false
        },
        {
            "ip": "54.37.128.40",
            "port": 2303,
            "name": "[RU] Tactical Life [Early Access]",
            "players": 44,
            "players_max": 186,
            "password": false,
            "battleye": true,
            "gm": false
        },
        {
            "ip": "202.185.131.148",
            "port": 2303,
            "name": "15th Malaya Regiment - Arma Malaysia",
            "players": 44,
            "players_max": 99,
            "password": true,
            "battleye": false,
            "gm": false
        },
        {
            "ip": "103.91.210.251",
            "port": 2103,
            "name": "#2 8.1占山为王丨载具服【双倍】Q群;940591562",
            "players": 44,
            "players_max": 150,
            "password": false,
            "battleye": true,
            "gm": false
        },
        {
            "ip": "212.22.93.26",
            "port": 2303,
            "name": "[RU] Rimas Role Play Altis| rimasrp.life",
            "players": 43,
            "players_max": 155,
            "password": false,
            "battleye": true,
            "gm": false
        },
        {
            "ip": "118.101.216.38",
            "port": 2303,
            "name": "ArmA Division | COMBATSIM Malaysia",
            "players": 43,
            "players_max": 58,
            "password": true,
            "battleye": false,
            "gm": false
        },
        {
            "ip": "66.70.180.218",
            "port": 2313,
            "name": "ANZUSGaming Kamdan Life - mods @ www.anzus.life",
            "players": 42,
            "players_max": 120,
            "password": false,
            "battleye": true,
            "gm": false
        },
        {
            "ip": "195.88.209.214",
            "port": 2393,
            "name": "RED BEAR IRON FRONT SERVER - (www.red-bear.ru)",
            "players": 42,
            "players_max": 120,
            "password": true,
            "battleye": false,
            "gm": false
        },
        {
            "ip": "185.97.255.29",
            "port": 2303,
            "name": "[RU] Theranos Altis Life[theranos-rpg.ru]",
            "players": 41,
            "players_max": 200,
            "password": false,
            "battleye": true,
            "gm": false
        },
        {
            "ip": "202.186.110.67",
            "port": 2303,
            "name": "15th Malaya Regiment - Arma Malaysia",
            "players": 41,
            "players_max": 99,
            "password": true,
            "battleye": false,
            "gm": false
        },
        {
            "ip": "192.223.29.147",
            "port": 2303,
            "name": "15th MEU (SOC) [Official] - Task Force Bravo",
            "players": 40,
            "players_max": 100,
            "password": true,
            "battleye": false,
            "gm": false
        },
        {
            "ip": "202.184.96.66",
            "port": 2303,
            "name": "15th Malaya Regiment - Arma Malaysia",
            "players": 40,
            "players_max": 99,
            "password": true,
            "battleye": false,
            "gm": false
        },
        {
            "ip": "178.63.83.76",
            "port": 2403,
            "name": "TAW.net - EU - Battalion Server ",
            "players": 39,
            "players_max": 83,
            "password": true,
            "battleye": false,
            "gm": false
        },
        {
            "ip": "79.151.168.3",
            "port": 2413,
            "name": "[ES]Campaña De Verano 2019",
            "players": 38,
            "players_max": 80,
            "password": true,
            "battleye": true,
            "gm": false
        },
        {
            "ip": "37.187.162.22",
            "port": 2323,
            "name": "TSB Fallout Phase 1",
            "players": 37,
            "players_max": 48,
            "password": true,
            "battleye": false,
            "gm": false
        },
        {
            "ip": "164.132.204.126",
            "port": 2403,
            "name": "CodeFourGaming - King Of The Hill Infantry EU #5 -24/7 Day",
            "players": 37,
            "players_max": 100,
            "password": false,
            "battleye": true,
            "gm": false
        },
        {
            "ip": "103.212.227.131",
            "port": 2303,
            "name": "Strayagaming.com | Invade & Annex",
            "players": 37,
            "players_max": 80,
            "password": false,
            "battleye": true,
            "gm": false
        },
        {
            "ip": "185.126.178.12",
            "port": 2303,
            "name": "[TR]Türk Gaming Life|cundabilisim|YeniSürüm Ts3:TGL ",
            "players": 37,
            "players_max": 162,
            "password": false,
            "battleye": true,
            "gm": false
        },
        {
            "ip": "202.184.194.181",
            "port": 2303,
            "name": "15th Malaya Regiment - Arma Malaysia",
            "players": 37,
            "players_max": 99,
            "password": true,
            "battleye": false,
            "gm": false
        },
        {
            "ip": "202.186.33.120",
            "port": 2303,
            "name": "15th Malaya Regiment - Arma Malaysia",
            "players": 36,
            "players_max": 99,
            "password": true,
            "battleye": false,
            "gm": false
        },
        {
            "ip": "202.184.40.189",
            "port": 2303,
            "name": "15th Malaya Regiment - Arma Malaysia",
            "players": 36,
            "players_max": 99,
            "password": true,
            "battleye": false,
            "gm": false
        },
        {
            "ip": "202.186.164.59",
            "port": 2303,
            "name": "15th Malaya Regiment - Arma Malaysia",
            "players": 36,
            "players_max": 99,
            "password": true,
            "battleye": false,
            "gm": false
        },
        {
            "ip": "176.112.64.57",
            "port": 2303,
            "name": "[RU] AmazingLife - RPG | #3-Testing |Amazingrp.ru|",
            "players": 34,
            "players_max": 130,
            "password": true,
            "battleye": true,
            "gm": false
        },
        {
            "ip": "120.52.56.123",
            "port": 2313,
            "name": "真红 ArmA3 公共服 QQ:584666174",
            "players": 32,
            "players_max": 64,
            "password": false,
            "battleye": true,
            "gm": false
        },
        {
            "ip": "168.126.145.108",
            "port": 2303,
            "name": "KG Event Sever",
            "players": 32,
            "players_max": 35,
            "password": true,
            "battleye": false,
            "gm": false
        },
        {
            "ip": "103.91.211.217",
            "port": 2303,
            "name": "西部世界纯角色扮演生活服Yy502081|Q181330194",
            "players": 31,
            "players_max": 100,
            "password": false,
            "battleye": true,
            "gm": false
        },
        {
            "ip": "202.186.101.162",
            "port": 2303,
            "name": "15th Malaya Regiment - Arma Malaysia",
            "players": 31,
            "players_max": 99,
            "password": true,
            "battleye": false,
            "gm": false
        },
        {
            "ip": "202.185.139.213",
            "port": 2363,
            "name": "15th Malaya Regiment - Spec Ops",
            "players": 30,
            "players_max": 40,
            "password": true,
            "battleye": false,
            "gm": false
        },
        {
            "ip": "37.230.228.229",
            "port": 2313,
            "name": "STALKER CLASSIC HARD RP",
            "players": 29,
            "players_max": 100,
            "password": false,
            "battleye": true,
            "gm": false
        },
        {
            "ip": "202.187.239.216",
            "port": 2303,
            "name": "5th Division Mission Server | ArmA Malaysia",
            "players": 29,
            "players_max": 68,
            "password": true,
            "battleye": false,
            "gm": false
        },
        {
            "ip": "195.88.209.214",
            "port": 2373,
            "name": "RED BEAR BRUTAL TVT SERVER - (www.red-bear.ru)",
            "players": 29,
            "players_max": 61,
            "password": true,
            "battleye": false,
            "gm": false
        },
        {
            "ip": "13.124.53.122",
            "port": 2303,
            "name": "[초보환영]Dalix 서버 https://discord.gg/gJmP3UM",
            "players": 28,
            "players_max": 70,
            "password": false,
            "battleye": true,
            "gm": false
        },
        {
            "ip": "103.212.227.75",
            "port": 2303,
            "name": "Strayagaming.com.au | Altis Life",
            "players": 28,
            "players_max": 120,
            "password": false,
            "battleye": true,
            "gm": false
        },
        {
            "ip": "202.186.163.214",
            "port": 2303,
            "name": "15th Malaya Regiment - Arma Malaysia",
            "players": 28,
            "players_max": 99,
            "password": true,
            "battleye": false,
            "gm": false
        },
        {
            "ip": "147.135.30.43",
            "port": 2303,
            "name": "A3Wasteland | $10k | Stratis | Official Trailerpark",
            "players": 27,
            "players_max": 100,
            "password": false,
            "battleye": true,
            "gm": false
        },
        {
            "ip": "69.162.80.110",
            "port": 2823,
            "name": "TAW.net - US - Fox Security Company - Event Server",
            "players": 27,
            "players_max": 64,
            "password": true,
            "battleye": false,
            "gm": false
        },
        {
            "ip": "62.138.3.13",
            "port": 2353,
            "name": "[SOB] Special Operations Brigade ..:: InfantryOnly ::..",
            "players": 27,
            "players_max": 80,
            "password": true,
            "battleye": false,
            "gm": false
        },
        {
            "ip": "136.243.18.106",
            "port": 2323,
            "name": "[ETR] Joint Operation Server - UNS/ETR/BSO",
            "players": 26,
            "players_max": 47,
            "password": true,
            "battleye": false,
            "gm": false
        },
        {
            "ip": "18.188.219.61",
            "port": 2303,
            "name": "Friday Night Fight",
            "players": 26,
            "players_max": 170,
            "password": true,
            "battleye": false,
            "gm": false
        }
    ]
}
